…
``` r
colnames(homicide_raw)
```

    ##  [1] "uid"           "reported_date" "victim_last"   "victim_first" 
    ##  [5] "victim_race"   "victim_age"    "victim_sex"    "city"         
    ##  [9] "state"         "lat"           "lon"           "disposition"

``` r
homicide_raw |> 
  count(uid) |> 
  arrange(desc(n))
```

    ## # A tibble: 52,179 × 2
    ##    uid            n
    ##    <chr>      <int>
    ##  1 Alb-000001     1
    ##  2 Alb-000002     1
    ##  3 Alb-000003     1
    ##  4 Alb-000004     1
    ##  5 Alb-000005     1
    ##  6 Alb-000006     1
    ##  7 Alb-000007     1
    ##  8 Alb-000008     1
    ##  9 Alb-000009     1
    ## 10 Alb-000010     1
    ## # ℹ 52,169 more rows
…
